%YAML 1.1
%TAG !u! tag:unity3d.com,2011:
--- !u!114 &11400000
MonoBehaviour:
  m_ObjectHideFlags: 0
  m_CorrespondingSourceObject: {fileID: 0}
  m_PrefabInstance: {fileID: 0}
  m_PrefabAsset: {fileID: 0}
  m_GameObject: {fileID: 0}
  m_Enabled: 1
  m_EditorHideFlags: 0
  m_Script: {fileID: 11500000, guid: b805a957c026ff54d938198f035986d1, type: 3}
  m_Name: Emma
  m_EditorClassIdentifier: 
  patientName: Emma
  gender: 1
  age: 0
  sizeInCm: 0
  skinColor: 0
  bloodType: 4
  breathing: 2
  conscious: 0
  triageColor: 4
  pulse: 1
  photoOfPatient: {fileID: 21300000, guid: b18e24ee3d269254bb8170ebdbec1f2e, type: 3}
  health: 10000
