%YAML 1.1
%TAG !u! tag:unity3d.com,2011:
--- !u!114 &11400000
MonoBehaviour:
  m_ObjectHideFlags: 0
  m_CorrespondingSourceObject: {fileID: 0}
  m_PrefabInstance: {fileID: 0}
  m_PrefabAsset: {fileID: 0}
  m_GameObject: {fileID: 0}
  m_Enabled: 1
  m_EditorHideFlags: 0
  m_Script: {fileID: 11500000, guid: b805a957c026ff54d938198f035986d1, type: 3}
  m_Name: Jefff
  m_EditorClassIdentifier: 
  patientName: Jefff
  gender: 0
  age: 50
  sizeInCm: 150
  skinColor: 1
  bloodType: 0
  breathing: 1
  conscious: 1
  triageColor: 1
  pulse: 2
  photoOfPatient: {fileID: 21300000, guid: c51da1be8f0d25d4d9818988367691f5, type: 3}
  health: 90
