%YAML 1.1
%TAG !u! tag:unity3d.com,2011:
--- !u!114 &11400000
MonoBehaviour:
  m_ObjectHideFlags: 0
  m_CorrespondingSourceObject: {fileID: 0}
  m_PrefabInstance: {fileID: 0}
  m_PrefabAsset: {fileID: 0}
  m_GameObject: {fileID: 0}
  m_Enabled: 1
  m_EditorHideFlags: 0
  m_Script: {fileID: 11500000, guid: b805a957c026ff54d938198f035986d1, type: 3}
  m_Name: Kim
  m_EditorClassIdentifier: 
  patientName: Kim
  gender: 1
  age: 27
  sizeInCm: 165
  skinColor: 0
  bloodType: 3
  breathing: 3
  conscious: 1
  triageColor: 3
  pulse: 2
  photoOfPatient: {fileID: 21300000, guid: 362a11882e501b94286f4314a2cd531c, type: 3}
  injuries: []
